20201227-millRiver_covidStudy_jsg2145
…
df2 = vector(mode = "list", length = ncol(M))
for(j in 1:ncol(M)) {
  df2[[j]] = matrify2(pdata = output[[j]])
}

head(df2)

## [[1]]
## # A tibble: 42 x 5
##        i     j `rname[[i]]`   `cname[[j]]`   `M[[i, j]]`
##    <int> <int> <chr>          <chr>                <dbl>
##  1     1     1 p_covid_012221 p_covid_012221     1      
##  2     1     2 p_covid_012221 p_educated        -0.372  
##  3     1     3 p_covid_012221 p_hs_dropout       0.209  
##  4     1     4 p_covid_012221 p_disability       0.201  
##  5     1     5 p_covid_012221 p_white           -0.00209
##  6     1     6 p_covid_012221 p_black            0.130  
##  7     1     7 p_covid_012221 p_hispanic         0.261  
##  8     1     8 p_covid_012221 p_asian           -0.380  
##  9     1     9 p_covid_012221 p_new_moms         0.0296 
## 10     1    10 p_covid_012221 p_fertility       -0.0211 
## # ... with 32 more rows
## 
## [[2]]
## # A tibble: 42 x 5
##        i     j `rname[[i]]` `cname[[j]]`   `M[[i, j]]`
##    <int> <int> <chr>        <chr>                <dbl>
##  1     2     1 p_educated   p_covid_012221     -0.372 
##  2     2     2 p_educated   p_educated          1     
##  3     2     3 p_educated   p_hs_dropout       -0.709 
##  4     2     4 p_educated   p_disability       -0.326 
##  5     2     5 p_educated   p_white             0.548 
##  6     2     6 p_educated   p_black            -0.499 
##  7     2     7 p_educated   p_hispanic         -0.750 
##  8     2     8 p_educated   p_asian             0.193 
##  9     2     9 p_educated   p_new_moms         -0.127 
## 10     2    10 p_educated   p_fertility        -0.0826
## # ... with 32 more rows
## 
## [[3]]
## # A tibble: 42 x 5
##        i     j `rname[[i]]` `cname[[j]]`   `M[[i, j]]`
##    <int> <int> <chr>        <chr>                <dbl>
##  1     3     1 p_hs_dropout p_covid_012221      0.209 
##  2     3     2 p_hs_dropout p_educated         -0.709 
##  3     3     3 p_hs_dropout p_hs_dropout        1     
##  4     3     4 p_hs_dropout p_disability        0.131 
##  5     3     5 p_hs_dropout p_white            -0.728 
##  6     3     6 p_hs_dropout p_black             0.607 
##  7     3     7 p_hs_dropout p_hispanic          0.833 
##  8     3     8 p_hs_dropout p_asian            -0.0289
##  9     3     9 p_hs_dropout p_new_moms          0.0348
## 10     3    10 p_hs_dropout p_fertility         0.222 
## # ... with 32 more rows
## 
## [[4]]
## # A tibble: 42 x 5
##        i     j `rname[[i]]` `cname[[j]]`   `M[[i, j]]`
##    <int> <int> <chr>        <chr>                <dbl>
##  1     4     1 p_disability p_covid_012221      0.201 
##  2     4     2 p_disability p_educated         -0.326 
##  3     4     3 p_disability p_hs_dropout        0.131 
##  4     4     4 p_disability p_disability        1     
##  5     4     5 p_disability p_white             0.116 
##  6     4     6 p_disability p_black            -0.0843
##  7     4     7 p_disability p_hispanic         -0.0325
##  8     4     8 p_disability p_asian            -0.125 
##  9     4     9 p_disability p_new_moms          0.0787
## 10     4    10 p_disability p_fertility         0.0680
## # ... with 32 more rows
## 
## [[5]]
## # A tibble: 42 x 5
##        i     j `rname[[i]]` `cname[[j]]`   `M[[i, j]]`
##    <int> <int> <chr>        <chr>                <dbl>
##  1     5     1 p_white      p_covid_012221    -0.00209
##  2     5     2 p_white      p_educated         0.548  
##  3     5     3 p_white      p_hs_dropout      -0.728  
##  4     5     4 p_white      p_disability       0.116  
##  5     5     5 p_white      p_white            1      
##  6     5     6 p_white      p_black           -0.800  
##  7     5     7 p_white      p_hispanic        -0.729  
##  8     5     8 p_white      p_asian           -0.367  
##  9     5     9 p_white      p_new_moms        -0.0459 
## 10     5    10 p_white      p_fertility       -0.216  
## # ... with 32 more rows
## 
## [[6]]
## # A tibble: 42 x 5
##        i     j `rname[[i]]` `cname[[j]]`   `M[[i, j]]`
##    <int> <int> <chr>        <chr>                <dbl>
##  1     6     1 p_black      p_covid_012221      0.130 
##  2     6     2 p_black      p_educated         -0.499 
##  3     6     3 p_black      p_hs_dropout        0.607 
##  4     6     4 p_black      p_disability       -0.0843
##  5     6     5 p_black      p_white            -0.800 
##  6     6     6 p_black      p_black             1     
##  7     6     7 p_black      p_hispanic          0.588 
##  8     6     8 p_black      p_asian            -0.125 
##  9     6     9 p_black      p_new_moms         -0.0458
## 10     6    10 p_black      p_fertility         0.197 
## # ... with 32 more rows
…
output2_df = bind_rows(output2) %>% 
  rename("cluster" = "km$cluster[[i]]")

# str(output2_df)

data %>% 
  add_column(cluster = pull(output2_df, cluster)) %>% 
  select(cluster, geographic_area_name) %>% 
  arrange(cluster)

## # A tibble: 129 x 2
##    cluster geographic_area_name  
##      <int> <chr>                 
##  1       1 Baldwin CDP           
##  2       1 Baldwin Harbor CDP    
##  3       1 Barnum Island CDP     
##  4       1 Baxter Estates village
##  5       1 Bay Park CDP          
##  6       1 Bellerose Terrace CDP 
##  7       1 Carle Place CDP       
##  8       1 Cedarhurst village    
##  9       1 East Meadow CDP       
## 10       1 East Rockaway village 
## # ... with 119 more rows
…
