20200107-millRiver_covidStudy_jsg2145
…
Jared Garfinkel

1/7/2021

Part 1

Read in data

cases = readxl::read_excel("./data/NassauCountyCOVID.xlsx") %>% 
  janitor::clean_names() %>% 
  select(namelsad, pos_12102020)

cases

## # A tibble: 134 x 2
##    namelsad               pos_12102020
##    <chr>                         <dbl>
##  1 Albertson CDP                   188
##  2 Atlantic Beach village          101
##  3 Baldwin CDP                    1235
##  4 Baldwin Harbor CDP              392
##  5 Barnum Island CDP               118
##  6 Baxter Estates village           40
##  7 Bay Park CDP                     80
##  8 Bayville village                323
##  9 Bellerose Terrace CDP           114
## 10 Bellerose village                49
## # ... with 124 more rows
…
